Starting with witch: winter conditions and characterization • witch
…
Then we run the function to analyze the weather conditions in this winter.

# analyze weather
weather_condition <-
  with(weather,
       analyze_weather(date, snow_depth, prec, temp_min, temp_max, temp_avg,
                       start = "first_permanent_snow"))

When we look at the results, we see a table with time series of input and derived variables calculated, as well as some summaries of the number of events and duration of events 3 and 4.

weather_condition
#> $weather_indices
#> # A tibble: 212 x 13
#>    date                snow_depth precipitation_s~ temp_min temp_max temp_avg
#>    <dttm>                   <dbl>            <dbl>    <dbl>    <dbl>    <dbl>
#>  1 2013-10-01 00:00:00          0                0     -4.5     12.3      2.1
#>  2 2013-10-02 00:00:00          0                0     -4.2     12.5      2.4
#>  3 2013-10-03 00:00:00          0                0     -4.4      9.4      3.5
#>  4 2013-10-04 00:00:00          0                0      1.5      7        4.4
#>  5 2013-10-05 00:00:00          0                0      3.9     10.4      6  
#>  6 2013-10-06 00:00:00          0                0     -3        9.6      4.3
#>  7 2013-10-07 00:00:00          0                0      2       13.9      8.4
#>  8 2013-10-08 00:00:00          0                0      5.7     14.5     10.7
#>  9 2013-10-09 00:00:00          0                0      3.7     11.8      7.6
#> 10 2013-10-10 00:00:00          0                0     -2.1      6.5      2.1
#> # ... with 202 more rows, and 7 more variables: cumulative_precitation <dbl>,
#> #   prec_snow_ratio <dbl>, prec_snow_diff <dbl>, snow_prec_ratio <dbl>,
#> #   snow_prec_diff <dbl>, events3 <dbl>, events4 <dbl>
…
