Analysis of winter conditions based on meteorological variables — analyze_weather • witch
…
weather_condition

#> $weather_indices
#> # A tibble: 212 x 14
#>    date                snow_depth precipitation_s~ temp_min temp_max temp_avg
#>    <dttm>                   <dbl>            <dbl>    <dbl>    <dbl>    <dbl>
#>  1 2014-10-01 00:00:00          0                0     -1.6      9.9      6.3
#>  2 2014-10-02 00:00:00          0                0      0.8     11.6      5.5
#>  3 2014-10-03 00:00:00          0                0     -1.8     11.6      7.7
#>  4 2014-10-04 00:00:00          0                0      8.9     12.3     11  
#>  5 2014-10-05 00:00:00          0                0      9       12.7     10.3
#>  6 2014-10-06 00:00:00          0                0      4        9.2      5.6
#>  7 2014-10-07 00:00:00          0                0      2        4.1      2.5
#>  8 2014-10-08 00:00:00          0                0      1.9      6.3      4.8
#>  9 2014-10-09 00:00:00          0                0      2.5      4.9      3.7
#> 10 2014-10-10 00:00:00          0                0      3.4      5.5      4.1
#> # ... with 202 more rows, and 8 more variables: cumulative_precitation <dbl>,
#> #   prec_snow_ratio <dbl>, prec_snow_diff <dbl>, snow_prec_ratio <dbl>,
#> #   snow_prec_diff <dbl>, events3 <dbl>, events4 <dbl>, eventsX <dbl>
…
